---
http_interactions:
- request:
    method: get
    uri: https://api.bestbuy.com/v1/stores(area(80211,25))?apiKey=a8k7nnexb87aa9hb3zzqbgf7&format=json&pageSize=10&show=longName,city,distance,phone,storeType
    body:
      encoding: US-ASCII
      string: ''
    headers:
      User-Agent:
      - Faraday v0.12.1
      Accept-Encoding:
      - gzip;q=1.0,deflate;q=0.6,identity;q=0.3
      Accept:
      - "*/*"
  response:
    status:
      code: 200
      message: OK
    headers:
      Access-Control-Allow-Headers:
      - origin, x-requested-with, accept
      Access-Control-Allow-Methods:
      - GET
      Access-Control-Allow-Origin:
      - "*"
      Access-Control-Max-Age:
      - '3628800'
      Content-Type:
      - application/json; charset=UTF-8
      Date:
      - Thu, 01 Jun 2017 21:06:42 GMT
      Server:
      - Best Buy Public APIs
      X-Cache-Hit:
      - 'true'
      Content-Length:
      - '1534'
      Connection:
      - keep-alive
    body:
      encoding: UTF-8
      string: '{"from":1,"to":10,"currentPage":1,"total":16,"totalPages":2,"queryTime":"0.012","totalTime":"0.022","partial":false,"canonicalUrl":"/v1/stores(area(\"80211\",25))?show=longName,city,distance,phone,storeType&pageSize=10&format=json&apiKey=a8k7nnexb87aa9hb3zzqbgf7","stores":[{"longName":"BEST
        BUY MOBILE - CHERRY CREEK SHOPPING CENTER","city":"DENVER","distance":5.04,"phone":"303-270-9189","storeType":"Mobile
        SAS"},{"longName":"BEST BUY - BELMAR","city":"LAKEWOOD","distance":5.15,"phone":"303-742-8039","storeType":"Big
        Box"},{"longName":"BEST BUY - WESTMINSTER","city":"WESTMINSTER","distance":7.13,"phone":"303-426-4434","storeType":"Big
        Box"},{"longName":"BEST BUY - COLORADO BLVD","city":"DENVER","distance":7.15,"phone":"303-758-5805","storeType":"Big
        Box"},{"longName":"BEST BUY - DENVER WEST","city":"LAKEWOOD","distance":7.45,"phone":"303-273-5617","storeType":"Big
        Box"},{"longName":"BEST BUY - NORTHGLENN","city":"DENVER","distance":8.22,"phone":"303-252-8677","storeType":"Big
        Box"},{"longName":"BEST BUY - LITTLETON","city":"LAKEWOOD","distance":10.93,"phone":"303-932-7830","storeType":"Big
        Box"},{"longName":"BEST BUY MOBILE - TOWN CENTER AT AURORA","city":"AURORA","distance":11.20,"phone":"303-326-0848","storeType":"Mobile
        SAS"},{"longName":"BEST BUY - AURORA","city":"AURORA","distance":11.30,"phone":"303-338-5797","storeType":"Big
        Box"},{"longName":"BEST BUY - SOUTHGLENN","city":"CENTENNIAL","distance":12.31,"phone":"303-797-3246","storeType":"Big
        Box"}],"warnings":"Distances are in terms of miles (default)"}'
    http_version: 
  recorded_at: Thu, 01 Jun 2017 21:05:41 GMT
- request:
    method: get
    uri: https://api.bestbuy.com/v1/stores(area(80211,25))?apiKey=a8k7nnexb87aa9hb3zzqbgf7&format=json&pageSize=10&show=longName,city,distance,phone,storeType
    body:
      encoding: US-ASCII
      string: ''
    headers:
      User-Agent:
      - Faraday v0.12.1
      Accept-Encoding:
      - gzip;q=1.0,deflate;q=0.6,identity;q=0.3
      Accept:
      - "*/*"
  response:
    status:
      code: 200
      message: OK
    headers:
      Access-Control-Allow-Headers:
      - origin, x-requested-with, accept
      Access-Control-Allow-Methods:
      - GET
      Access-Control-Allow-Origin:
      - "*"
      Access-Control-Max-Age:
      - '3628800'
      Content-Type:
      - application/json; charset=UTF-8
      Date:
      - Thu, 01 Jun 2017 21:36:28 GMT
      Server:
      - Best Buy Public APIs
      X-Cache-Hit:
      - 'true'
      Content-Length:
      - '1534'
      Connection:
      - keep-alive
    body:
      encoding: UTF-8
      string: '{"from":1,"to":10,"currentPage":1,"total":16,"totalPages":2,"queryTime":"0.012","totalTime":"0.022","partial":false,"canonicalUrl":"/v1/stores(area(\"80211\",25))?show=longName,city,distance,phone,storeType&pageSize=10&format=json&apiKey=a8k7nnexb87aa9hb3zzqbgf7","stores":[{"longName":"BEST
        BUY MOBILE - CHERRY CREEK SHOPPING CENTER","city":"DENVER","distance":5.04,"phone":"303-270-9189","storeType":"Mobile
        SAS"},{"longName":"BEST BUY - BELMAR","city":"LAKEWOOD","distance":5.15,"phone":"303-742-8039","storeType":"Big
        Box"},{"longName":"BEST BUY - WESTMINSTER","city":"WESTMINSTER","distance":7.13,"phone":"303-426-4434","storeType":"Big
        Box"},{"longName":"BEST BUY - COLORADO BLVD","city":"DENVER","distance":7.15,"phone":"303-758-5805","storeType":"Big
        Box"},{"longName":"BEST BUY - DENVER WEST","city":"LAKEWOOD","distance":7.45,"phone":"303-273-5617","storeType":"Big
        Box"},{"longName":"BEST BUY - NORTHGLENN","city":"DENVER","distance":8.22,"phone":"303-252-8677","storeType":"Big
        Box"},{"longName":"BEST BUY - LITTLETON","city":"LAKEWOOD","distance":10.93,"phone":"303-932-7830","storeType":"Big
        Box"},{"longName":"BEST BUY MOBILE - TOWN CENTER AT AURORA","city":"AURORA","distance":11.20,"phone":"303-326-0848","storeType":"Mobile
        SAS"},{"longName":"BEST BUY - AURORA","city":"AURORA","distance":11.30,"phone":"303-338-5797","storeType":"Big
        Box"},{"longName":"BEST BUY - SOUTHGLENN","city":"CENTENNIAL","distance":12.31,"phone":"303-797-3246","storeType":"Big
        Box"}],"warnings":"Distances are in terms of miles (default)"}'
    http_version: 
  recorded_at: Thu, 01 Jun 2017 21:37:53 GMT
- request:
    method: get
    uri: https://api.bestbuy.com/v1/stores(area(80211,25))?apiKey=a8k7nnexb87aa9hb3zzqbgf7&format=json&pageSize=10&show=longName,city,distance,phone,storeType
    body:
      encoding: US-ASCII
      string: ''
    headers:
      User-Agent:
      - Faraday v0.12.1
      Accept-Encoding:
      - gzip;q=1.0,deflate;q=0.6,identity;q=0.3
      Accept:
      - "*/*"
  response:
    status:
      code: 200
      message: OK
    headers:
      Access-Control-Allow-Headers:
      - origin, x-requested-with, accept
      Access-Control-Allow-Methods:
      - GET
      Access-Control-Allow-Origin:
      - "*"
      Access-Control-Max-Age:
      - '3628800'
      Content-Type:
      - application/json; charset=UTF-8
      Date:
      - Thu, 01 Jun 2017 21:40:40 GMT
      Server:
      - Best Buy Public APIs
      X-Cache-Hit:
      - 'true'
      Content-Length:
      - '1534'
      Connection:
      - keep-alive
    body:
      encoding: UTF-8
      string: '{"from":1,"to":10,"currentPage":1,"total":16,"totalPages":2,"queryTime":"0.012","totalTime":"0.022","partial":false,"canonicalUrl":"/v1/stores(area(\"80211\",25))?show=longName,city,distance,phone,storeType&pageSize=10&format=json&apiKey=a8k7nnexb87aa9hb3zzqbgf7","stores":[{"longName":"BEST
        BUY MOBILE - CHERRY CREEK SHOPPING CENTER","city":"DENVER","distance":5.04,"phone":"303-270-9189","storeType":"Mobile
        SAS"},{"longName":"BEST BUY - BELMAR","city":"LAKEWOOD","distance":5.15,"phone":"303-742-8039","storeType":"Big
        Box"},{"longName":"BEST BUY - WESTMINSTER","city":"WESTMINSTER","distance":7.13,"phone":"303-426-4434","storeType":"Big
        Box"},{"longName":"BEST BUY - COLORADO BLVD","city":"DENVER","distance":7.15,"phone":"303-758-5805","storeType":"Big
        Box"},{"longName":"BEST BUY - DENVER WEST","city":"LAKEWOOD","distance":7.45,"phone":"303-273-5617","storeType":"Big
        Box"},{"longName":"BEST BUY - NORTHGLENN","city":"DENVER","distance":8.22,"phone":"303-252-8677","storeType":"Big
        Box"},{"longName":"BEST BUY - LITTLETON","city":"LAKEWOOD","distance":10.93,"phone":"303-932-7830","storeType":"Big
        Box"},{"longName":"BEST BUY MOBILE - TOWN CENTER AT AURORA","city":"AURORA","distance":11.20,"phone":"303-326-0848","storeType":"Mobile
        SAS"},{"longName":"BEST BUY - AURORA","city":"AURORA","distance":11.30,"phone":"303-338-5797","storeType":"Big
        Box"},{"longName":"BEST BUY - SOUTHGLENN","city":"CENTENNIAL","distance":12.31,"phone":"303-797-3246","storeType":"Big
        Box"}],"warnings":"Distances are in terms of miles (default)"}'
    http_version: 
  recorded_at: Thu, 01 Jun 2017 21:40:05 GMT
- request:
    method: get
    uri: https://api.bestbuy.com/v1/stores(area(80211,25))?apiKey=a8k7nnexb87aa9hb3zzqbgf7&format=json&pageSize=10&show=longName,city,distance,phone,storeType
    body:
      encoding: US-ASCII
      string: ''
    headers:
      User-Agent:
      - Faraday v0.12.1
      Accept-Encoding:
      - gzip;q=1.0,deflate;q=0.6,identity;q=0.3
      Accept:
      - "*/*"
  response:
    status:
      code: 200
      message: OK
    headers:
      Access-Control-Allow-Headers:
      - origin, x-requested-with, accept
      Access-Control-Allow-Methods:
      - GET
      Access-Control-Allow-Origin:
      - "*"
      Access-Control-Max-Age:
      - '3628800'
      Content-Type:
      - application/json; charset=UTF-8
      Date:
      - Thu, 01 Jun 2017 21:41:06 GMT
      Server:
      - Best Buy Public APIs
      X-Cache-Hit:
      - 'true'
      Content-Length:
      - '1534'
      Connection:
      - keep-alive
    body:
      encoding: UTF-8
      string: '{"from":1,"to":10,"currentPage":1,"total":16,"totalPages":2,"queryTime":"0.012","totalTime":"0.022","partial":false,"canonicalUrl":"/v1/stores(area(\"80211\",25))?show=longName,city,distance,phone,storeType&pageSize=10&format=json&apiKey=a8k7nnexb87aa9hb3zzqbgf7","stores":[{"longName":"BEST
        BUY MOBILE - CHERRY CREEK SHOPPING CENTER","city":"DENVER","distance":5.04,"phone":"303-270-9189","storeType":"Mobile
        SAS"},{"longName":"BEST BUY - BELMAR","city":"LAKEWOOD","distance":5.15,"phone":"303-742-8039","storeType":"Big
        Box"},{"longName":"BEST BUY - WESTMINSTER","city":"WESTMINSTER","distance":7.13,"phone":"303-426-4434","storeType":"Big
        Box"},{"longName":"BEST BUY - COLORADO BLVD","city":"DENVER","distance":7.15,"phone":"303-758-5805","storeType":"Big
        Box"},{"longName":"BEST BUY - DENVER WEST","city":"LAKEWOOD","distance":7.45,"phone":"303-273-5617","storeType":"Big
        Box"},{"longName":"BEST BUY - NORTHGLENN","city":"DENVER","distance":8.22,"phone":"303-252-8677","storeType":"Big
        Box"},{"longName":"BEST BUY - LITTLETON","city":"LAKEWOOD","distance":10.93,"phone":"303-932-7830","storeType":"Big
        Box"},{"longName":"BEST BUY MOBILE - TOWN CENTER AT AURORA","city":"AURORA","distance":11.20,"phone":"303-326-0848","storeType":"Mobile
        SAS"},{"longName":"BEST BUY - AURORA","city":"AURORA","distance":11.30,"phone":"303-338-5797","storeType":"Big
        Box"},{"longName":"BEST BUY - SOUTHGLENN","city":"CENTENNIAL","distance":12.31,"phone":"303-797-3246","storeType":"Big
        Box"}],"warnings":"Distances are in terms of miles (default)"}'
    http_version: 
  recorded_at: Thu, 01 Jun 2017 21:40:05 GMT
- request:
    method: get
    uri: https://api.bestbuy.com/v1/stores(area(80211,25))?apiKey=a8k7nnexb87aa9hb3zzqbgf7&format=json&pageSize=10&show=longName,city,distance,phone,storeType
    body:
      encoding: US-ASCII
      string: ''
    headers:
      User-Agent:
      - Faraday v0.12.1
      Accept-Encoding:
      - gzip;q=1.0,deflate;q=0.6,identity;q=0.3
      Accept:
      - "*/*"
  response:
    status:
      code: 200
      message: OK
    headers:
      Access-Control-Allow-Headers:
      - origin, x-requested-with, accept
      Access-Control-Allow-Methods:
      - GET
      Access-Control-Allow-Origin:
      - "*"
      Access-Control-Max-Age:
      - '3628800'
      Content-Type:
      - application/json; charset=UTF-8
      Date:
      - Thu, 01 Jun 2017 21:45:30 GMT
      Server:
      - Best Buy Public APIs
      X-Cache-Hit:
      - 'true'
      Content-Length:
      - '1534'
      Connection:
      - keep-alive
    body:
      encoding: UTF-8
      string: '{"from":1,"to":10,"currentPage":1,"total":16,"totalPages":2,"queryTime":"0.012","totalTime":"0.022","partial":false,"canonicalUrl":"/v1/stores(area(\"80211\",25))?show=longName,city,distance,phone,storeType&pageSize=10&format=json&apiKey=a8k7nnexb87aa9hb3zzqbgf7","stores":[{"longName":"BEST
        BUY MOBILE - CHERRY CREEK SHOPPING CENTER","city":"DENVER","distance":5.04,"phone":"303-270-9189","storeType":"Mobile
        SAS"},{"longName":"BEST BUY - BELMAR","city":"LAKEWOOD","distance":5.15,"phone":"303-742-8039","storeType":"Big
        Box"},{"longName":"BEST BUY - WESTMINSTER","city":"WESTMINSTER","distance":7.13,"phone":"303-426-4434","storeType":"Big
        Box"},{"longName":"BEST BUY - COLORADO BLVD","city":"DENVER","distance":7.15,"phone":"303-758-5805","storeType":"Big
        Box"},{"longName":"BEST BUY - DENVER WEST","city":"LAKEWOOD","distance":7.45,"phone":"303-273-5617","storeType":"Big
        Box"},{"longName":"BEST BUY - NORTHGLENN","city":"DENVER","distance":8.22,"phone":"303-252-8677","storeType":"Big
        Box"},{"longName":"BEST BUY - LITTLETON","city":"LAKEWOOD","distance":10.93,"phone":"303-932-7830","storeType":"Big
        Box"},{"longName":"BEST BUY MOBILE - TOWN CENTER AT AURORA","city":"AURORA","distance":11.20,"phone":"303-326-0848","storeType":"Mobile
        SAS"},{"longName":"BEST BUY - AURORA","city":"AURORA","distance":11.30,"phone":"303-338-5797","storeType":"Big
        Box"},{"longName":"BEST BUY - SOUTHGLENN","city":"CENTENNIAL","distance":12.31,"phone":"303-797-3246","storeType":"Big
        Box"}],"warnings":"Distances are in terms of miles (default)"}'
    http_version: 
  recorded_at: Thu, 01 Jun 2017 21:46:54 GMT
- request:
    method: get
    uri: https://api.bestbuy.com/v1/stores(area(80211,25))?apiKey=a8k7nnexb87aa9hb3zzqbgf7&format=json&pageSize=10&show=longName,city,distance,phone,storeType
    body:
      encoding: US-ASCII
      string: ''
    headers:
      User-Agent:
      - Faraday v0.12.1
      Accept-Encoding:
      - gzip;q=1.0,deflate;q=0.6,identity;q=0.3
      Accept:
      - "*/*"
  response:
    status:
      code: 200
      message: OK
    headers:
      Access-Control-Allow-Headers:
      - origin, x-requested-with, accept
      Access-Control-Allow-Methods:
      - GET
      Access-Control-Allow-Origin:
      - "*"
      Access-Control-Max-Age:
      - '3628800'
      Content-Type:
      - application/json; charset=UTF-8
      Date:
      - Thu, 01 Jun 2017 21:45:30 GMT
      Server:
      - Best Buy Public APIs
      X-Cache-Hit:
      - 'true'
      Content-Length:
      - '1534'
      Connection:
      - keep-alive
    body:
      encoding: UTF-8
      string: '{"from":1,"to":10,"currentPage":1,"total":16,"totalPages":2,"queryTime":"0.012","totalTime":"0.022","partial":false,"canonicalUrl":"/v1/stores(area(\"80211\",25))?show=longName,city,distance,phone,storeType&pageSize=10&format=json&apiKey=a8k7nnexb87aa9hb3zzqbgf7","stores":[{"longName":"BEST
        BUY MOBILE - CHERRY CREEK SHOPPING CENTER","city":"DENVER","distance":5.04,"phone":"303-270-9189","storeType":"Mobile
        SAS"},{"longName":"BEST BUY - BELMAR","city":"LAKEWOOD","distance":5.15,"phone":"303-742-8039","storeType":"Big
        Box"},{"longName":"BEST BUY - WESTMINSTER","city":"WESTMINSTER","distance":7.13,"phone":"303-426-4434","storeType":"Big
        Box"},{"longName":"BEST BUY - COLORADO BLVD","city":"DENVER","distance":7.15,"phone":"303-758-5805","storeType":"Big
        Box"},{"longName":"BEST BUY - DENVER WEST","city":"LAKEWOOD","distance":7.45,"phone":"303-273-5617","storeType":"Big
        Box"},{"longName":"BEST BUY - NORTHGLENN","city":"DENVER","distance":8.22,"phone":"303-252-8677","storeType":"Big
        Box"},{"longName":"BEST BUY - LITTLETON","city":"LAKEWOOD","distance":10.93,"phone":"303-932-7830","storeType":"Big
        Box"},{"longName":"BEST BUY MOBILE - TOWN CENTER AT AURORA","city":"AURORA","distance":11.20,"phone":"303-326-0848","storeType":"Mobile
        SAS"},{"longName":"BEST BUY - AURORA","city":"AURORA","distance":11.30,"phone":"303-338-5797","storeType":"Big
        Box"},{"longName":"BEST BUY - SOUTHGLENN","city":"CENTENNIAL","distance":12.31,"phone":"303-797-3246","storeType":"Big
        Box"}],"warnings":"Distances are in terms of miles (default)"}'
    http_version: 
  recorded_at: Thu, 01 Jun 2017 21:46:55 GMT
- request:
    method: get
    uri: https://api.bestbuy.com/v1/stores(area(80211,25))?apiKey=a8k7nnexb87aa9hb3zzqbgf7&format=json&pageSize=10&show=longName,city,distance,phone,storeType
    body:
      encoding: US-ASCII
      string: ''
    headers:
      User-Agent:
      - Faraday v0.12.1
      Accept-Encoding:
      - gzip;q=1.0,deflate;q=0.6,identity;q=0.3
      Accept:
      - "*/*"
  response:
    status:
      code: 200
      message: OK
    headers:
      Access-Control-Allow-Headers:
      - origin, x-requested-with, accept
      Access-Control-Allow-Methods:
      - GET
      Access-Control-Allow-Origin:
      - "*"
      Access-Control-Max-Age:
      - '3628800'
      Content-Type:
      - application/json; charset=UTF-8
      Date:
      - Thu, 01 Jun 2017 23:33:44 GMT
      Server:
      - Best Buy Public APIs
      X-Cache-Hit:
      - 'true'
      Content-Length:
      - '1534'
      Connection:
      - keep-alive
    body:
      encoding: UTF-8
      string: '{"from":1,"to":10,"currentPage":1,"total":16,"totalPages":2,"queryTime":"0.030","totalTime":"0.041","partial":false,"canonicalUrl":"/v1/stores(area(\"80211\",25))?show=longName,city,distance,phone,storeType&pageSize=10&format=json&apiKey=a8k7nnexb87aa9hb3zzqbgf7","stores":[{"longName":"BEST
        BUY MOBILE - CHERRY CREEK SHOPPING CENTER","city":"DENVER","distance":5.04,"phone":"303-270-9189","storeType":"Mobile
        SAS"},{"longName":"BEST BUY - BELMAR","city":"LAKEWOOD","distance":5.15,"phone":"303-742-8039","storeType":"Big
        Box"},{"longName":"BEST BUY - WESTMINSTER","city":"WESTMINSTER","distance":7.13,"phone":"303-426-4434","storeType":"Big
        Box"},{"longName":"BEST BUY - COLORADO BLVD","city":"DENVER","distance":7.15,"phone":"303-758-5805","storeType":"Big
        Box"},{"longName":"BEST BUY - DENVER WEST","city":"LAKEWOOD","distance":7.45,"phone":"303-273-5617","storeType":"Big
        Box"},{"longName":"BEST BUY - NORTHGLENN","city":"DENVER","distance":8.22,"phone":"303-252-8677","storeType":"Big
        Box"},{"longName":"BEST BUY - LITTLETON","city":"LAKEWOOD","distance":10.93,"phone":"303-932-7830","storeType":"Big
        Box"},{"longName":"BEST BUY MOBILE - TOWN CENTER AT AURORA","city":"AURORA","distance":11.20,"phone":"303-326-0848","storeType":"Mobile
        SAS"},{"longName":"BEST BUY - AURORA","city":"AURORA","distance":11.30,"phone":"303-338-5797","storeType":"Big
        Box"},{"longName":"BEST BUY - SOUTHGLENN","city":"CENTENNIAL","distance":12.31,"phone":"303-797-3246","storeType":"Big
        Box"}],"warnings":"Distances are in terms of miles (default)"}'
    http_version: 
  recorded_at: Thu, 01 Jun 2017 23:32:44 GMT
- request:
    method: get
    uri: https://api.bestbuy.com/v1/stores(area(80211,25))?apiKey=a8k7nnexb87aa9hb3zzqbgf7&format=json&pageSize=10&show=longName,city,distance,phone,storeType
    body:
      encoding: US-ASCII
      string: ''
    headers:
      User-Agent:
      - Faraday v0.12.1
      Accept-Encoding:
      - gzip;q=1.0,deflate;q=0.6,identity;q=0.3
      Accept:
      - "*/*"
  response:
    status:
      code: 200
      message: OK
    headers:
      Access-Control-Allow-Headers:
      - origin, x-requested-with, accept
      Access-Control-Allow-Methods:
      - GET
      Access-Control-Allow-Origin:
      - "*"
      Access-Control-Max-Age:
      - '3628800'
      Content-Type:
      - application/json; charset=UTF-8
      Date:
      - Thu, 01 Jun 2017 23:33:22 GMT
      Server:
      - Best Buy Public APIs
      X-Cache-Hit:
      - 'true'
      Content-Length:
      - '1534'
      Connection:
      - keep-alive
    body:
      encoding: UTF-8
      string: '{"from":1,"to":10,"currentPage":1,"total":16,"totalPages":2,"queryTime":"0.030","totalTime":"0.041","partial":false,"canonicalUrl":"/v1/stores(area(\"80211\",25))?show=longName,city,distance,phone,storeType&pageSize=10&format=json&apiKey=a8k7nnexb87aa9hb3zzqbgf7","stores":[{"longName":"BEST
        BUY MOBILE - CHERRY CREEK SHOPPING CENTER","city":"DENVER","distance":5.04,"phone":"303-270-9189","storeType":"Mobile
        SAS"},{"longName":"BEST BUY - BELMAR","city":"LAKEWOOD","distance":5.15,"phone":"303-742-8039","storeType":"Big
        Box"},{"longName":"BEST BUY - WESTMINSTER","city":"WESTMINSTER","distance":7.13,"phone":"303-426-4434","storeType":"Big
        Box"},{"longName":"BEST BUY - COLORADO BLVD","city":"DENVER","distance":7.15,"phone":"303-758-5805","storeType":"Big
        Box"},{"longName":"BEST BUY - DENVER WEST","city":"LAKEWOOD","distance":7.45,"phone":"303-273-5617","storeType":"Big
        Box"},{"longName":"BEST BUY - NORTHGLENN","city":"DENVER","distance":8.22,"phone":"303-252-8677","storeType":"Big
        Box"},{"longName":"BEST BUY - LITTLETON","city":"LAKEWOOD","distance":10.93,"phone":"303-932-7830","storeType":"Big
        Box"},{"longName":"BEST BUY MOBILE - TOWN CENTER AT AURORA","city":"AURORA","distance":11.20,"phone":"303-326-0848","storeType":"Mobile
        SAS"},{"longName":"BEST BUY - AURORA","city":"AURORA","distance":11.30,"phone":"303-338-5797","storeType":"Big
        Box"},{"longName":"BEST BUY - SOUTHGLENN","city":"CENTENNIAL","distance":12.31,"phone":"303-797-3246","storeType":"Big
        Box"}],"warnings":"Distances are in terms of miles (default)"}'
    http_version: 
  recorded_at: Thu, 01 Jun 2017 23:32:47 GMT
- request:
    method: get
    uri: https://api.bestbuy.com/v1/stores(area(80211,25))?apiKey=a8k7nnexb87aa9hb3zzqbgf7&format=json&pageSize=10&show=longName,city,distance,phone,storeType
    body:
      encoding: US-ASCII
      string: ''
    headers:
      User-Agent:
      - Faraday v0.12.1
      Accept-Encoding:
      - gzip;q=1.0,deflate;q=0.6,identity;q=0.3
      Accept:
      - "*/*"
  response:
    status:
      code: 200
      message: OK
    headers:
      Access-Control-Allow-Headers:
      - origin, x-requested-with, accept
      Access-Control-Allow-Methods:
      - GET
      Access-Control-Allow-Origin:
      - "*"
      Access-Control-Max-Age:
      - '3628800'
      Content-Type:
      - application/json; charset=UTF-8
      Date:
      - Thu, 01 Jun 2017 23:33:36 GMT
      Server:
      - Best Buy Public APIs
      X-Cache-Hit:
      - 'true'
      Content-Length:
      - '1534'
      Connection:
      - keep-alive
    body:
      encoding: UTF-8
      string: '{"from":1,"to":10,"currentPage":1,"total":16,"totalPages":2,"queryTime":"0.030","totalTime":"0.041","partial":false,"canonicalUrl":"/v1/stores(area(\"80211\",25))?show=longName,city,distance,phone,storeType&pageSize=10&format=json&apiKey=a8k7nnexb87aa9hb3zzqbgf7","stores":[{"longName":"BEST
        BUY MOBILE - CHERRY CREEK SHOPPING CENTER","city":"DENVER","distance":5.04,"phone":"303-270-9189","storeType":"Mobile
        SAS"},{"longName":"BEST BUY - BELMAR","city":"LAKEWOOD","distance":5.15,"phone":"303-742-8039","storeType":"Big
        Box"},{"longName":"BEST BUY - WESTMINSTER","city":"WESTMINSTER","distance":7.13,"phone":"303-426-4434","storeType":"Big
        Box"},{"longName":"BEST BUY - COLORADO BLVD","city":"DENVER","distance":7.15,"phone":"303-758-5805","storeType":"Big
        Box"},{"longName":"BEST BUY - DENVER WEST","city":"LAKEWOOD","distance":7.45,"phone":"303-273-5617","storeType":"Big
        Box"},{"longName":"BEST BUY - NORTHGLENN","city":"DENVER","distance":8.22,"phone":"303-252-8677","storeType":"Big
        Box"},{"longName":"BEST BUY - LITTLETON","city":"LAKEWOOD","distance":10.93,"phone":"303-932-7830","storeType":"Big
        Box"},{"longName":"BEST BUY MOBILE - TOWN CENTER AT AURORA","city":"AURORA","distance":11.20,"phone":"303-326-0848","storeType":"Mobile
        SAS"},{"longName":"BEST BUY - AURORA","city":"AURORA","distance":11.30,"phone":"303-338-5797","storeType":"Big
        Box"},{"longName":"BEST BUY - SOUTHGLENN","city":"CENTENNIAL","distance":12.31,"phone":"303-797-3246","storeType":"Big
        Box"}],"warnings":"Distances are in terms of miles (default)"}'
    http_version: 
  recorded_at: Thu, 01 Jun 2017 23:33:01 GMT
- request:
    method: get
    uri: https://api.bestbuy.com/v1/stores(area(80211,25))?apiKey=a8k7nnexb87aa9hb3zzqbgf7&format=json&pageSize=10&show=longName,city,distance,phone,storeType
    body:
      encoding: US-ASCII
      string: ''
    headers:
      User-Agent:
      - Faraday v0.12.1
      Accept-Encoding:
      - gzip;q=1.0,deflate;q=0.6,identity;q=0.3
      Accept:
      - "*/*"
  response:
    status:
      code: 200
      message: OK
    headers:
      Access-Control-Allow-Headers:
      - origin, x-requested-with, accept
      Access-Control-Allow-Methods:
      - GET
      Access-Control-Allow-Origin:
      - "*"
      Access-Control-Max-Age:
      - '3628800'
      Content-Type:
      - application/json; charset=UTF-8
      Date:
      - Thu, 01 Jun 2017 23:34:03 GMT
      Server:
      - Best Buy Public APIs
      X-Cache-Hit:
      - 'true'
      Content-Length:
      - '1534'
      Connection:
      - keep-alive
    body:
      encoding: UTF-8
      string: '{"from":1,"to":10,"currentPage":1,"total":16,"totalPages":2,"queryTime":"0.030","totalTime":"0.041","partial":false,"canonicalUrl":"/v1/stores(area(\"80211\",25))?show=longName,city,distance,phone,storeType&pageSize=10&format=json&apiKey=a8k7nnexb87aa9hb3zzqbgf7","stores":[{"longName":"BEST
        BUY MOBILE - CHERRY CREEK SHOPPING CENTER","city":"DENVER","distance":5.04,"phone":"303-270-9189","storeType":"Mobile
        SAS"},{"longName":"BEST BUY - BELMAR","city":"LAKEWOOD","distance":5.15,"phone":"303-742-8039","storeType":"Big
        Box"},{"longName":"BEST BUY - WESTMINSTER","city":"WESTMINSTER","distance":7.13,"phone":"303-426-4434","storeType":"Big
        Box"},{"longName":"BEST BUY - COLORADO BLVD","city":"DENVER","distance":7.15,"phone":"303-758-5805","storeType":"Big
        Box"},{"longName":"BEST BUY - DENVER WEST","city":"LAKEWOOD","distance":7.45,"phone":"303-273-5617","storeType":"Big
        Box"},{"longName":"BEST BUY - NORTHGLENN","city":"DENVER","distance":8.22,"phone":"303-252-8677","storeType":"Big
        Box"},{"longName":"BEST BUY - LITTLETON","city":"LAKEWOOD","distance":10.93,"phone":"303-932-7830","storeType":"Big
        Box"},{"longName":"BEST BUY MOBILE - TOWN CENTER AT AURORA","city":"AURORA","distance":11.20,"phone":"303-326-0848","storeType":"Mobile
        SAS"},{"longName":"BEST BUY - AURORA","city":"AURORA","distance":11.30,"phone":"303-338-5797","storeType":"Big
        Box"},{"longName":"BEST BUY - SOUTHGLENN","city":"CENTENNIAL","distance":12.31,"phone":"303-797-3246","storeType":"Big
        Box"}],"warnings":"Distances are in terms of miles (default)"}'
    http_version: 
  recorded_at: Thu, 01 Jun 2017 23:33:02 GMT
recorded_with: VCR 3.0.3
