---
http_interactions:
- request:
    method: get
    uri: https://api.bestbuy.com/v1/stores(area(80211,25))?apiKey=a8k7nnexb87aa9hb3zzqbgf7&format=json&pageSize=10&show=longName,city,distance,phone,storeType
    body:
      encoding: US-ASCII
      string: ''
    headers:
      User-Agent:
      - Faraday v0.12.1
      Accept-Encoding:
      - gzip;q=1.0,deflate;q=0.6,identity;q=0.3
      Accept:
      - "*/*"
  response:
    status:
      code: 200
      message: OK
    headers:
      Access-Control-Allow-Headers:
      - origin, x-requested-with, accept
      Access-Control-Allow-Methods:
      - GET
      Access-Control-Allow-Origin:
      - "*"
      Access-Control-Max-Age:
      - '3628800'
      Content-Type:
      - application/json; charset=UTF-8
      Date:
      - Thu, 01 Jun 2017 21:02:18 GMT
      Server:
      - Best Buy Public APIs
      X-Cache-Hit:
      - 'false'
      Content-Length:
      - '1534'
      Connection:
      - keep-alive
    body:
      encoding: UTF-8
      string: '{"from":1,"to":10,"currentPage":1,"total":16,"totalPages":2,"queryTime":"0.012","totalTime":"0.022","partial":false,"canonicalUrl":"/v1/stores(area(\"80211\",25))?show=longName,city,distance,phone,storeType&pageSize=10&format=json&apiKey=a8k7nnexb87aa9hb3zzqbgf7","stores":[{"longName":"BEST
        BUY MOBILE - CHERRY CREEK SHOPPING CENTER","city":"DENVER","distance":5.04,"phone":"303-270-9189","storeType":"Mobile
        SAS"},{"longName":"BEST BUY - BELMAR","city":"LAKEWOOD","distance":5.15,"phone":"303-742-8039","storeType":"Big
        Box"},{"longName":"BEST BUY - WESTMINSTER","city":"WESTMINSTER","distance":7.13,"phone":"303-426-4434","storeType":"Big
        Box"},{"longName":"BEST BUY - COLORADO BLVD","city":"DENVER","distance":7.15,"phone":"303-758-5805","storeType":"Big
        Box"},{"longName":"BEST BUY - DENVER WEST","city":"LAKEWOOD","distance":7.45,"phone":"303-273-5617","storeType":"Big
        Box"},{"longName":"BEST BUY - NORTHGLENN","city":"DENVER","distance":8.22,"phone":"303-252-8677","storeType":"Big
        Box"},{"longName":"BEST BUY - LITTLETON","city":"LAKEWOOD","distance":10.93,"phone":"303-932-7830","storeType":"Big
        Box"},{"longName":"BEST BUY MOBILE - TOWN CENTER AT AURORA","city":"AURORA","distance":11.20,"phone":"303-326-0848","storeType":"Mobile
        SAS"},{"longName":"BEST BUY - AURORA","city":"AURORA","distance":11.30,"phone":"303-338-5797","storeType":"Big
        Box"},{"longName":"BEST BUY - SOUTHGLENN","city":"CENTENNIAL","distance":12.31,"phone":"303-797-3246","storeType":"Big
        Box"}],"warnings":"Distances are in terms of miles (default)"}'
    http_version: 
  recorded_at: Thu, 01 Jun 2017 21:01:43 GMT
- request:
    method: get
    uri: https://api.bestbuy.com/v1/stores(area(,25))?apiKey=a8k7nnexb87aa9hb3zzqbgf7&format=json&pageSize=10&show=longName,city,distance,phone,storeType
    body:
      encoding: US-ASCII
      string: ''
    headers:
      User-Agent:
      - Faraday v0.12.1
      Accept-Encoding:
      - gzip;q=1.0,deflate;q=0.6,identity;q=0.3
      Accept:
      - "*/*"
  response:
    status:
      code: 400
      message: Bad Request
    headers:
      Content-Type:
      - application/json; charset=UTF-8
      Date:
      - Thu, 01 Jun 2017 21:21:06 GMT
      Server:
      - thin
      Content-Length:
      - '2564'
      Connection:
      - keep-alive
    body:
      encoding: UTF-8
      string: '{"error":{"code":400,"status":"400 Bad Request","message":"'''' is
        not a valid postal code, we support 5-digit US postal codes, or 3- or 6-character
        Canadian postal codes.","examples":["/v1/products/8880044.xml?apiKey=<YourApiKey>
        : Get product information for sku 8880044; display as XML","/v1/stores/187.json?apiKey=<YourApiKey>
        : Get information for store 187; display as JSON","/v1/products?apiKey=<YourApiKey>
        : Get all products; show the first 10, sorted by name, display default attributes,
        formatted as xml","/v1/products?facet=manufacturer,10&apiKey=<YourApiKey>
        : Get all products; show the first 10, sorted by name, display default attributes,
        formatted as xml, and display up to 10 facets based on the \"manufacturer\"
        field.","/v1/products?pageSize=50&page=4&apiKey=<YourApiKey> : Get page 4
        of all products, 50 products per page","/v1/products?show=sku,name,salePrice&apiKey=<YourApiKey>
        : Get all products, display only sku, name, and SalePrice for each","/v1/products?sort=regularPrice.desc&apiKey=<YourApiKey>
        : Get all products, sort descending by regular price (most expensive first)","/v1/products(manufacturer=canon)?apiKey=<YourApiKey>
        : Get all products manufactured by Canon","/v1/products(salePrice<299.99)?apiKey=<YourApiKey>
        : Get all products whose sale price is less than $299.99","/v1/products(manufacturer=canon&salePrice<299.99)?apiKey=<YourApiKey>
        : Get Canon products with sale price less than $299.99","/v1/products(sku
        in(9909482,1221963,9491935))?apiKey=<YourApiKey> : Get products whose sku
        is in the list (9909482,1221963,9491935)","/v1/products(wifiReady=true|wifiBuiltIn=true)?apiKey=<YourApiKey>
        : Get products that are either Wi-Fi ready, OR have Wi-Fi built in","/v1/products(name=castlevania*)?apiKey=<YourApiKey>
        : Get physical (not downloadable) products with \"castlevania\" in name","/v1/products(name=castlevania*&digital=true)?apiKey=<YourApiKey>
        : Get downloadable products with \"castlevania\" in name","/v1/products(name=castlevania*&digital=*)?apiKey=<YourApiKey>
        : Get products, physical or downloadable, with \"castlevania\" in name","/v1/stores(area(55423,10))?show=storeId,name,hours,distance&apiKey=<YourApiKey>
        : Get stores within 10 miles of zip code 55423; show store number, name, store
        hours, and distance from zip code reference point","/v1/stores(area(55423,10))+products(sku
        in(9909482,1221963,9491935))?show=storeId,name,products.sku,products.name&apiKey=<YourApiKey>
        : Get stores within 10 miles of zip code 55423, and show which skus, of 9909482,
        1221963, or 9491935, each store has in stock"]}}'
    http_version: 
  recorded_at: Thu, 01 Jun 2017 21:20:05 GMT
- request:
    method: get
    uri: https://api.bestbuy.com/v1/stores(area(73019,25))?apiKey=a8k7nnexb87aa9hb3zzqbgf7&format=json&pageSize=10&show=longName,city,distance,phone,storeType
    body:
      encoding: US-ASCII
      string: ''
    headers:
      User-Agent:
      - Faraday v0.12.1
      Accept-Encoding:
      - gzip;q=1.0,deflate;q=0.6,identity;q=0.3
      Accept:
      - "*/*"
  response:
    status:
      code: 200
      message: OK
    headers:
      Access-Control-Allow-Headers:
      - origin, x-requested-with, accept
      Access-Control-Allow-Methods:
      - GET
      Access-Control-Allow-Origin:
      - "*"
      Access-Control-Max-Age:
      - '3628800'
      Content-Type:
      - application/json; charset=UTF-8
      Date:
      - Thu, 01 Jun 2017 21:19:37 GMT
      Server:
      - Best Buy Public APIs
      X-Cache-Hit:
      - 'false'
      Content-Length:
      - '1186'
      Connection:
      - keep-alive
    body:
      encoding: UTF-8
      string: '{"from":1,"to":7,"currentPage":1,"total":7,"totalPages":1,"queryTime":"0.029","totalTime":"0.038","partial":false,"canonicalUrl":"/v1/stores(area(\"73019\",25))?show=longName,city,distance,phone,storeType&pageSize=10&format=json&apiKey=a8k7nnexb87aa9hb3zzqbgf7","stores":[{"longName":"BEST
        BUY - NORMAN","city":"NORMAN","distance":2.50,"phone":"405-573-9613","storeType":"Big
        Box"},{"longName":"BEST BUY MOBILE - SOONER MALL","city":"NORMAN","distance":2.88,"phone":"405-366-6018","storeType":"Mobile
        SAS"},{"longName":"BEST BUY - MOORE","city":"MOORE","distance":7.84,"phone":"405-912-9789","storeType":"Big
        Box"},{"longName":"BEST BUY - OKLAHOMA CITY SOUTH","city":"OKLAHOMA CITY","distance":14.02,"phone":"405-682-7339","storeType":"Big
        Box"},{"longName":"BEST BUY - MIDWEST CITY","city":"MIDWEST CITY","distance":16.20,"phone":"405-733-4289","storeType":"Big
        Box"},{"longName":"BEST BUY - OKLAHOMA CITY WEST","city":"OKLAHOMA CITY","distance":20.62,"phone":"405-440-1732","storeType":"Big
        Box"},{"longName":"BEST BUY - OKLAHOMA CITY NORTH","city":"OKLAHOMA CITY","distance":23.49,"phone":"405-840-3796","storeType":"Big
        Box"}],"warnings":"Distances are in terms of miles (default)"}'
    http_version: 
  recorded_at: Thu, 01 Jun 2017 21:21:02 GMT
recorded_with: VCR 3.0.3
